[
  {
    "round": "Round 1",
    "matchDate": "2023-02-04",
    "kickOff": "3.00PM",
    "team1": "Barrow Raiders",
    "team1Score": "4",
    "team2Score": "24",
    "team2": "Toulouse Olympique",
    "attendance": "2177",
    "result": "AwayWin",
    "venue": "",
    "referee": " C. Worsley"
  },
  {
    "round": "Round 1",
    "matchDate": "2023-02-05",
    "kickOff": "3.00PM",
    "team1": "London Broncos",
    "team1Score": "20",
    "team2Score": "30",
    "team2": "Batley Bulldogs",
    "attendance": "1849",
    "result": "AwayWin",
    "venue": "",
    "referee": "A. Moore"
  },
  {
    "round": "Round 1",
    "matchDate": "2023-02-05",
    "kickOff": "3.00PM",
    "team1": "Halifax Panthers",
    "team1Score": "26",
    "team2Score": "18",
    "team2": "Sheffield Eagles",
    "attendance": "2101",
    "result": "HomeWin",
    "venue": "",
    "referee": "M. Clayton"
  },
  {
    "round": "Round 1",
    "matchDate": "2023-02-05",
    "kickOff": "3.00PM",
    "team1": "Swinton Lions",
    "team1Score": "6",
    "team2Score": "18",
    "team2": "Newcastle Thunder",
    "attendance": "877",
    "result": "AwayWin",
    "venue": "",
    "referee": "B. Milligan"
  },
  {
    "round": "Round 1",
    "matchDate": "2023-02-05",
    "kickOff": "3.00PM",
    "team1": "Bradford Bulls",
    "team1Score": "24",
    "team2Score": "8",
    "team2": "Whitehaven RLFC",
    "attendance": "4870",
    "result": "HomeWin",
    "venue": "",
    "referee": "N. Bennett"
  },
  {
    "round": "Round 1",
    "matchDate": "2023-02-05",
    "kickOff": "3.00PM",
    "team1": "York City Knights",
    "team1Score": "12",
    "team2Score": "19",
    "team2": "Widnes Vikings",
    "attendance": "2117",
    "result": "AwayWin",
    "venue": "",
    "referee": "M. Smaill"
  },
  {
    "round": "Round 1",
    "matchDate": "2023-02-06",
    "kickOff": "7.45PM",
    "team1": "Keighley Cougars",
    "team1Score": "0",
    "team2Score": "50",
    "team2": "Featherstone Rovers",
    "attendance": "2443",
    "result": "AwayWin",
    "venue": "",
    "referee": "A. Sweet"
  },
  {
    "round": "Round 2",
    "matchDate": "2023-02-11",
    "kickOff": "6.00PM",
    "team1": "Toulouse Olympique",
    "team1Score": "58",
    "team2Score": "0",
    "team2": "Newcastle Thunder",
    "attendance": "",
    "result": "HomeWin",
    "venue": "",
    "referee": "M. Griffiths"
  },
  {
    "round": "Round 2",
    "matchDate": "2023-02-12",
    "kickOff": "3.00PM",
    "team1": "Whitehaven RLFC",
    "team1Score": "16",
    "team2Score": "20",
    "team2": "London Broncos",
    "attendance": "",
    "result": "AwayWin",
    "venue": "",
    "referee": "C. Regan"
  },
  {
    "round": "Round 2",
    "matchDate": "2023-02-12",
    "kickOff": "3.00PM",
    "team1": "Batley Bulldogs",
    "team1Score": "16",
    "team2Score": "30",
    "team2": "Swinton Lions",
    "attendance": "",
    "result": "AwayWin",
    "venue": "",
    "referee": "A. Moore"
  },
  {
    "round": "Round 2",
    "matchDate": "2023-02-12",
    "kickOff": "3.00PM",
    "team1": "Barrow Raiders",
    "team1Score": "16",
    "team2Score": "36",
    "team2": "Sheffield Eagles",
    "attendance": "",
    "result": "AwayWin",
    "venue": "",
    "referee": "B. Thaler"
  },
  {
    "round": "Round 2",
    "matchDate": "2023-02-12",
    "kickOff": "3.00PM",
    "team1": "Widnes Vikings",
    "team1Score": "26",
    "team2Score": "18",
    "team2": "Keighley Cougars",
    "attendance": "",
    "result": "HomeWin",
    "venue": "",
    "referee": "L. Moore"
  },
  {
    "round": "Round 2",
    "matchDate": "2023-02-12",
    "kickOff": "4.00PM",
    "team1": "Featherstone Rovers",
    "team1Score": "46",
    "team2Score": "22",
    "team2": "Halifax Panthers",
    "attendance": "",
    "result": "HomeWin",
    "venue": "",
    "referee": "C. Kendall"
  },
  {
    "round": "Round 2",
    "matchDate": "2023-02-13",
    "kickOff": "7.45PM",
    "team1": "York City Knights",
    "team1Score": "32",
    "team2Score": "16",
    "team2": "Bradford Bulls",
    "attendance": "",
    "result": "HomeWin",
    "venue": "",
    "referee": "M. Hebblethwatie"
  },
  {
    "round": "Round 3",
    "matchDate": "2023-02-17",
    "kickOff": "7.30PM",
    "team1": "Sheffield Eagles",
    "team1Score": "36",
    "team2Score": "0",
    "team2": "Batley Bulldogs",
    "attendance": "",
    "result": "HomeWin",
    "venue": "",
    "referee": ""
  },
  {
    "round": "Round 3",
    "matchDate": "2023-02-18",
    "kickOff": "5.00PM",
    "team1": "Toulouse Olympique",
    "team1Score": "36",
    "team2Score": "0",
    "team2": "York City Knights",
    "attendance": "",
    "result": "HomeWin",
    "venue": "",
    "referee": ""
  },
  {
    "round": "Round 3",
    "matchDate": "2023-02-19",
    "kickOff": "3.00PM",
    "team1": "Bradford Bulls",
    "team1Score": "14",
    "team2Score": "12",
    "team2": "Widnes Vikings",
    "attendance": "",
    "result": "HomeWin",
    "venue": "",
    "referee": ""
  },
  {
    "round": "Round 3",
    "matchDate": "2023-02-19",
    "kickOff": "3.00PM",
    "team1": "Featherstone Rovers",
    "team1Score": "76",
    "team2Score": "4",
    "team2": "Whitehaven RLFC",
    "attendance": "",
    "result": "HomeWin",
    "venue": "",
    "referee": ""
  },
  {
    "round": "Round 3",
    "matchDate": "2023-02-19",
    "kickOff": "3.00PM",
    "team1": "Halifax Panthers",
    "team1Score": "26",
    "team2Score": "18",
    "team2": "London Broncos",
    "attendance": "",
    "result": "HomeWin",
    "venue": "",
    "referee": ""
  },
  {
    "round": "Round 3",
    "matchDate": "2023-02-19",
    "kickOff": "3.00PM",
    "team1": "Keighley Cougars",
    "team1Score": "44",
    "team2Score": "24",
    "team2": "Newcastle Thunder",
    "attendance": "",
    "result": "HomeWin",
    "venue": "",
    "referee": ""
  },
  {
    "round": "Round 3",
    "matchDate": "2023-02-19",
    "kickOff": "3.00PM",
    "team1": "Swinton Lions",
    "team1Score": "20",
    "team2Score": "18",
    "team2": "Barrow Raiders",
    "attendance": "",
    "result": "HomeWin",
    "venue": "",
    "referee": ""
  },
  {
    "round": "Round 4",
    "matchDate": "2023-02-25",
    "kickOff": "1.00PM",
    "team1": "Bradford Bulls",
    "team1Score": "28",
    "team2Score": "18",
    "team2": "Toulouse Olympique",
    "attendance": "",
    "result": "HomeWin",
    "venue": "",
    "referee": ""
  },
  {
    "round": "Round 4",
    "matchDate": "2023-02-26",
    "kickOff": "3.00PM",
    "team1": "Batley Bulldogs",
    "team1Score": "28",
    "team2Score": "23",
    "team2": "Keighley Cougars",
    "attendance": "",
    "result": "HomeWin",
    "venue": "",
    "referee": ""
  },
  {
    "round": "Round 4",
    "matchDate": "2023-02-26",
    "kickOff": "3.00PM",
    "team1": "Featherstone Rovers",
    "team1Score": "58",
    "team2Score": "6",
    "team2": "Newcastle Thunder",
    "attendance": "",
    "result": "HomeWin",
    "venue": "",
    "referee": ""
  },
  {
    "round": "Round 4",
    "matchDate": "2023-02-26",
    "kickOff": "3.00PM",
    "team1": "London Broncos",
    "team1Score": "20",
    "team2Score": "21",
    "team2": "Sheffield Eagles",
    "attendance": "",
    "result": "AwayWin",
    "venue": "",
    "referee": ""
  },
  {
    "round": "Round 4",
    "matchDate": "2023-02-26",
    "kickOff": "3.00PM",
    "team1": "Whitehaven RLFC",
    "team1Score": "20",
    "team2Score": "4",
    "team2": "Swinton Lions",
    "attendance": "",
    "result": "HomeWin",
    "venue": "",
    "referee": ""
  },
  {
    "round": "Round 4",
    "matchDate": "2023-02-26",
    "kickOff": "3.00PM",
    "team1": "York City Knights",
    "team1Score": "28",
    "team2Score": "14",
    "team2": "Barrow Raiders",
    "attendance": "",
    "result": "HomeWin",
    "venue": "",
    "referee": ""
  },
  {
    "round": "Round 4",
    "matchDate": "2023-02-27",
    "kickOff": "8.00PM",
    "team1": "Widnes Vikings",
    "team1Score": "42",
    "team2Score": "14",
    "team2": "Halifax Panthers",
    "attendance": "",
    "result": "HomeWin",
    "venue": "",
    "referee": ""
  },
  {
    "round": "Round 5",
    "matchDate": "2021-03-04",
    "kickOff": "6.00PM",
    "team1": "Toulouse Olympique",
    "team1Score": "72",
    "team2Score": "10",
    "team2": "Whitehaven RLFC",
    "attendance": "",
    "result": "HomeWin",
    "venue": "",
    "referee": ""
  },
  {
    "round": "Round 5",
    "matchDate": "2021-03-05",
    "kickOff": "3.00PM",
    "team1": "Barrow Raiders",
    "team1Score": "18",
    "team2Score": "18",
    "team2": "Newcastle Thunder",
    "attendance": "",
    "result": "Draw",
    "venue": "",
    "referee": ""
  },
  {
    "round": "Round 5",
    "matchDate": "2021-03-05",
    "kickOff": "3.00PM",
    "team1": "Halifax Panthers",
    "team1Score": "20",
    "team2Score": "16",
    "team2": "Batley Bulldogs",
    "attendance": "",
    "result": "HomeWin",
    "venue": "",
    "referee": ""
  },
  {
    "round": "Round 5",
    "matchDate": "2021-03-05",
    "kickOff": "3.00PM",
    "team1": "Keighley Cougars",
    "team1Score": "33",
    "team2Score": "22",
    "team2": "London Broncos",
    "attendance": "",
    "result": "HomeWin",
    "venue": "",
    "referee": ""
  },
  {
    "round": "Round 5",
    "matchDate": "2021-03-05",
    "kickOff": "3.00PM",
    "team1": "Sheffield Eagles",
    "team1Score": "42",
    "team2Score": "12",
    "team2": "Widnes Vikings",
    "attendance": "",
    "result": "HomeWin",
    "venue": "",
    "referee": ""
  },
  {
    "round": "Round 5",
    "matchDate": "2021-03-05",
    "kickOff": "3.00PM",
    "team1": "Swinton Lions",
    "team1Score": "0",
    "team2Score": "40",
    "team2": "York City Knights",
    "attendance": "",
    "result": "AwayWin",
    "venue": "",
    "referee": ""
  },
  {
    "round": "Round 5",
    "matchDate": "2021-03-05",
    "kickOff": "3.00PM",
    "team1": "Featherstone Rovers",
    "team1Score": "26",
    "team2Score": "12",
    "team2": "Bradford Bulls",
    "attendance": "",
    "result": "HomeWin",
    "venue": "",
    "referee": ""
  },
  {
    "round": "Round 6",
    "matchDate": "2023-03-18",
    "kickOff": "3.00PM",
    "team1": "Widnes Vikings",
    "team1Score": "12",
    "team2Score": "14",
    "team2": "Toulouse Olympique",
    "attendance": "",
    "result": "AwayWin",
    "venue": "",
    "referee": ""
  },
  {
    "round": "Round 6",
    "matchDate": "2023-03-18",
    "kickOff": "3.00PM",
    "team1": "Newcastle Thunder",
    "team1Score": "6",
    "team2Score": "36",
    "team2": "London Broncos",
    "attendance": "",
    "result": "AwayWin",
    "venue": "",
    "referee": ""
  },
  {
    "round": "Round 6",
    "matchDate": "2023-03-19",
    "kickOff": "3.00PM",
    "team1": "Bradford Bulls",
    "team1Score": "32",
    "team2Score": "18",
    "team2": "Sheffield Eagles",
    "attendance": "3004",
    "result": "HomeWin",
    "venue": "",
    "referee": "M Griffiths"
  },
  {
    "round": "Round 6",
    "matchDate": "2023-03-19",
    "kickOff": "3.00PM",
    "team1": "Halifax Panthers",
    "team1Score": "34",
    "team2Score": "10",
    "team2": "Keighley Cougars",
    "attendance": "2123",
    "result": "HomeWin",
    "venue": "",
    "referee": "L Rush"
  },
  {
    "round": "Round 6",
    "matchDate": "2023-03-19",
    "kickOff": "3.00PM",
    "team1": "York City Knights",
    "team1Score": "12",
    "team2Score": "14",
    "team2": "Whitehaven RLFC",
    "attendance": "",
    "result": "AwayWin",
    "venue": "",
    "referee": "S Mikalauskas"
  },
  {
    "round": "Round 6",
    "matchDate": "2023-03-19",
    "kickOff": "3.00PM",
    "team1": "Swinton Lions",
    "team1Score": "6",
    "team2Score": "34",
    "team2": "Featherstone Rovers",
    "attendance": "1090",
    "result": "AwayWin",
    "venue": "",
    "referee": "M Smaill"
  },
  {
    "round": "Round 6",
    "matchDate": "2023-03-20",
    "kickOff": "7.45PM",
    "team1": "Batley Bulldogs",
    "team1Score": "24",
    "team2Score": "12",
    "team2": "Barrow Raiders",
    "attendance": "",
    "result": "HomeWin",
    "venue": "",
    "referee": ""
  },
  {
    "round": "Round 7",
    "matchDate": "2023-03-25",
    "kickOff": "3.00PM",
    "team1": "Sheffield Eagles",
    "team1Score": "32",
    "team2Score": "4",
    "team2": "Toulouse Olympique",
    "attendance": "959",
    "result": "HomeWin",
    "venue": "",
    "referee": "T Grant"
  },
  {
    "round": "Round 7",
    "matchDate": "2023-03-26",
    "kickOff": "3.00PM",
    "team1": "Barrow Raiders",
    "team1Score": "16",
    "team2Score": "12",
    "team2": "Halifax Panthers",
    "attendance": "1879",
    "result": "HomeWin",
    "venue": "",
    "referee": "J Vella"
  },
  {
    "round": "Round 7",
    "matchDate": "2023-03-26",
    "kickOff": "3.00PM",
    "team1": "Featherstone Rovers",
    "team1Score": "46",
    "team2Score": "4",
    "team2": "York City Knights",
    "attendance": "2892",
    "result": "HomeWin",
    "venue": "",
    "referee": "L Rush"
  },
  {
    "round": "Round 7",
    "matchDate": "2023-03-26",
    "kickOff": "3.00PM",
    "team1": "Keighley Cougars",
    "team1Score": "34",
    "team2Score": "6",
    "team2": "Bradford Bulls",
    "attendance": "4793",
    "result": "HomeWin",
    "venue": "",
    "referee": "S Mikalauskas"
  },
  {
    "round": "Round 7",
    "matchDate": "2023-03-26",
    "kickOff": "3.00PM",
    "team1": "London Broncos",
    "team1Score": "16",
    "team2Score": "14",
    "team2": "Swinton Lions",
    "attendance": "",
    "result": "HomeWin",
    "venue": "",
    "referee": "N Bennett"
  },
  {
    "round": "Round 7",
    "matchDate": "2023-03-26",
    "kickOff": "3.00PM",
    "team1": "Whitehaven RLFC",
    "team1Score": "16",
    "team2Score": "18",
    "team2": "Batley Bulldogs",
    "attendance": "1006",
    "result": "AwayWin",
    "venue": "",
    "referee": ""
  },
  {
    "round": "Round 7",
    "matchDate": "2023-03-26",
    "kickOff": "3.00PM",
    "team1": "Widnes Vikings",
    "team1Score": "24",
    "team2Score": "16",
    "team2": "Newcastle Thunder",
    "attendance": "2743",
    "result": "HomeWin",
    "venue": "",
    "referee": "C Worsley"
  },
  {
    "round": "Round 8",
    "matchDate": "2023-04-07",
    "kickOff": "3.00PM",
    "team1": "York City Knights",
    "team1Score": "10",
    "team2Score": "22",
    "team2": "Keighley Cougars",
    "attendance": "",
    "result": "AwayWin",
    "venue": "",
    "referee": "N Bennett"
  },
  {
    "round": "Round 8",
    "matchDate": "2023-04-07",
    "kickOff": "3.00PM",
    "team1": "Toulouse Olympique",
    "team1Score": "52",
    "team2Score": "0",
    "team2": "London Broncos",
    "attendance": "",
    "result": "HomeWin",
    "venue": "",
    "referee": "M Smaill"
  },
  {
    "round": "Round 8",
    "matchDate": "2023-04-07",
    "kickOff": "3.00PM",
    "team1": "Swinton Lions",
    "team1Score": "16",
    "team2Score": "48",
    "team2": "Widnes Vikings",
    "attendance": "",
    "result": "AwayWin",
    "venue": "",
    "referee": "S Mikalauskas"
  },
  {
    "round": "Round 8",
    "matchDate": "2023-04-07",
    "kickOff": "3.00PM",
    "team1": "Newcastle Thunder",
    "team1Score": "20",
    "team2Score": "44",
    "team2": "Sheffield Eagles",
    "attendance": "",
    "result": "AwayWin",
    "venue": "",
    "referee": "B Milligan"
  },
  {
    "round": "Round 8",
    "matchDate": "2023-04-07",
    "kickOff": "3.00PM",
    "team1": "Batley Bulldogs",
    "team1Score": "18",
    "team2Score": "26",
    "team2": "Featherstone Rovers",
    "attendance": "",
    "result": "AwayWin",
    "venue": "",
    "referee": "J Vella"
  },
  {
    "round": "Round 8",
    "matchDate": "2023-04-07",
    "kickOff": "3.00PM",
    "team1": "Barrow Raiders",
    "team1Score": "14",
    "team2Score": "16",
    "team2": "Whitehaven RLFC",
    "attendance": "",
    "result": "AwayWin",
    "venue": "",
    "referee": "C Worsley"
  },
  {
    "round": "Round 8",
    "matchDate": "2023-04-10",
    "kickOff": "3.00PM",
    "team1": "Halifax Panthers",
    "team1Score": "22",
    "team2Score": "26",
    "team2": "Bradford Bulls",
    "attendance": "",
    "result": "AwayWin",
    "venue": "",
    "referee": "T Grant"
  },
  {
    "round": "Round 9",
    "matchDate": "2023-04-16",
    "kickOff": "3.00PM",
    "team1": "Bradford Bulls",
    "team1Score": "16",
    "team2Score": "21",
    "team2": "Batley Bulldogs",
    "attendance": "",
    "result": "AwayWin",
    "venue": "",
    "referee": ""
  },
  {
    "round": "Round 9",
    "matchDate": "2023-04-16",
    "kickOff": "3.00PM",
    "team1": "Halifax Panthers",
    "team1Score": "16",
    "team2Score": "6",
    "team2": "York City Knights",
    "attendance": "",
    "result": "HomeWin",
    "venue": "",
    "referee": ""
  },
  {
    "round": "Round 9",
    "matchDate": "2023-04-16",
    "kickOff": "3.00PM",
    "team1": "London Broncos",
    "team1Score": "10",
    "team2Score": "40",
    "team2": "Featherstone Rovers",
    "attendance": "",
    "result": "AwayWin",
    "venue": "",
    "referee": ""
  },
  {
    "round": "Round 9",
    "matchDate": "2023-04-16",
    "kickOff": "3.00PM",
    "team1": "Whitehaven RLFC",
    "team1Score": "31",
    "team2Score": "6",
    "team2": "Newcastle Thunder",
    "attendance": "",
    "result": "HomeWin",
    "venue": "",
    "referee": ""
  },
  {
    "round": "Round 9",
    "matchDate": "2023-04-16",
    "kickOff": "3.00PM",
    "team1": "Widnes Vikings",
    "team1Score": "23",
    "team2Score": "14",
    "team2": "Barrow Raiders",
    "attendance": "",
    "result": "HomeWin",
    "venue": "",
    "referee": ""
  },
  {
    "round": "Round 9",
    "matchDate": "2023-04-17",
    "kickOff": "8.00PM",
    "team1": "Sheffield Eagles",
    "team1Score": "16",
    "team2Score": "6",
    "team2": "Swinton Lions",
    "attendance": "",
    "result": "HomeWin",
    "venue": "",
    "referee": ""
  },
  {
    "round": "Round 10",
    "matchDate": "2023-05-06",
    "kickOff": "3.00PM",
    "team1": "Swinton Lions",
    "team1Score": "19",
    "team2Score": "12",
    "team2": "Toulouse Olympique",
    "attendance": "",
    "result": "HomeWin",
    "venue": "",
    "referee": ""
  },
  {
    "round": "Round 10",
    "matchDate": "2023-05-07",
    "kickOff": "3.00PM",
    "team1": "Barrow Raiders",
    "team1Score": "46",
    "team2Score": "12",
    "team2": "Bradford Bulls",
    "attendance": "",
    "result": "HomeWin",
    "venue": "",
    "referee": ""
  },
  {
    "round": "Round 10",
    "matchDate": "2023-05-07",
    "kickOff": "3.00PM",
    "team1": "Featherstone Rovers",
    "team1Score": "28",
    "team2Score": "20",
    "team2": "Sheffield Eagles",
    "attendance": "",
    "result": "HomeWin",
    "venue": "",
    "referee": ""
  },
  {
    "round": "Round 10",
    "matchDate": "2023-05-07",
    "kickOff": "3.00PM",
    "team1": "Newcastle Thunder",
    "team1Score": "16",
    "team2Score": "36",
    "team2": "Halifax Panthers",
    "attendance": "",
    "result": "AwayWin",
    "venue": "",
    "referee": ""
  },
  {
    "round": "Round 10",
    "matchDate": "2023-05-07",
    "kickOff": "3.00PM",
    "team1": "Whitehaven RLFC",
    "team1Score": "24",
    "team2Score": "32",
    "team2": "Keighley Cougars",
    "attendance": "",
    "result": "AwayWin",
    "venue": "",
    "referee": ""
  },
  {
    "round": "Round 10",
    "matchDate": "2023-05-07",
    "kickOff": "3.00PM",
    "team1": "York City Knights",
    "team1Score": "30",
    "team2Score": "28",
    "team2": "London Broncos",
    "attendance": "",
    "result": "HomeWin",
    "venue": "",
    "referee": ""
  }
]
