round,matchDate,kickOff,team1,team1Score,team2Score,team2,attendance,result,venue,referee
Round 1,2023-01-26,17:00,Featherstone Rovers,,,Halifax Panthers,,,,
Round 1,2023-01-26,17:15,London Broncos,,,Sheffield Eagles,,,,
Round 1,2023-01-26,19:30,Dewsbury Rams,,,Barrow Raiders,,,,
Round 1,2023-01-26,16:30,York City Knights,,,Whitehaven RLFC,,,,
Round 1,2023-01-26,19:30,Bradford Bulls,,,Widnes Vikings,,,,
Round 1,2023-01-26,12:45,Newcastle Thunder,,,Batley Bulldogs,,,,
Round 1,2023-01-26,17:15,Leigh Centurions,,,Workington Town,,,,
